…
```
## [1] 2.3575
```
National Parks has the highest average all species diversity.

**7. Use `filter` to find the transect that has the highest relative abundance of elephants. What land use type is this? Use `arrange()` to sort your results.** 

```r
gabon %>% 
  select(TransectID, RA_Elephant, LandUse) %>% 
  arrange(-RA_Elephant)
```

```
## # A tibble: 24 × 3
##    TransectID RA_Elephant LandUse
##    <fct>            <dbl> <fct>  
##  1 18                2.3  Logging
##  2 8                 2.2  Neither
##  3 2                 1.33 Park   
##  4 6                 1.11 Park   
##  5 4                 1    Park   
##  6 13                0.99 Logging
##  7 2                 0.86 Park   
##  8 21                0.77 Neither
##  9 3                 0.56 Logging
## 10 14                0.52 Logging
## # ℹ 14 more rows
```
…
